<?xml version="1.0" encoding="UTF-8"?>
<svg xmlns="http://www.w3.org/2000/svg"
     xmlns:xlink="http://www.w3.org/1999/xlink"
     width="3700"
     height="800">
   <circle cx="50"
           cy="50"
           r="30"
           fill="rgb(205, 200, 63)"
           stroke="rgb(205, 200, 63)"
           stroke-width="5"/>
   <text x="38"
         y="62"
         font-family="serif"
         font-weight="bold"
         font-size="32"
         fill="black">9</text>
   <circle cx="80"
           cy="400"
           r="10"
           fill="rgb(205, 200, 63)"
           stroke="rgb(205, 200, 63)"
           stroke-width="3"/>
   <text transform="translate (80, 386) rotate(-60)"
         font-family="Verdana"
         font-weight="bold"
         font-size="12"
         fill="black">
        Pont de Sèvres
      </text>
   <line x1="94"
         y1="400"
         x2="160"
         y2="400"
         stroke="rgb(205, 200, 63)"
         stroke-width="7"
         stroke-linecap="round"/>
   <circle cx="160"
           cy="400"
           r="10"
           fill="rgb(205, 200, 63)"
           stroke="rgb(205, 200, 63)"
           stroke-width="3"/>
   <text transform="translate (160, 386) rotate(-60)"
         font-family="Verdana"
         font-weight="bold"
         font-size="12"
         fill="black">
        Billancourt
      </text>
   <line x1="174"
         y1="400"
         x2="240"
         y2="400"
         stroke="rgb(205, 200, 63)"
         stroke-width="7"
         stroke-linecap="round"/>
   <circle cx="240"
           cy="400"
           r="10"
           fill="rgb(205, 200, 63)"
           stroke="rgb(205, 200, 63)"
           stroke-width="3"/>
   <text transform="translate (240, 386) rotate(-60)"
         font-family="Verdana"
         font-weight="bold"
         font-size="12"
         fill="black">
        Marcel Sembat
      </text>
   <line x1="254"
         y1="400"
         x2="320"
         y2="400"
         stroke="rgb(205, 200, 63)"
         stroke-width="7"
         stroke-linecap="round"/>
   <circle cx="320"
           cy="400"
           r="10"
           fill="rgb(205, 200, 63)"
           stroke="rgb(205, 200, 63)"
           stroke-width="3"/>
   <text transform="translate (320, 386) rotate(-60)"
         font-family="Verdana"
         font-weight="bold"
         font-size="12"
         fill="black">
        Porte de Saint-Cloud
      </text>
   <line x1="334"
         y1="400"
         x2="400"
         y2="400"
         stroke="rgb(205, 200, 63)"
         stroke-width="7"
         stroke-linecap="round"/>
   <circle cx="400"
           cy="400"
           r="10"
           fill="rgb(205, 200, 63)"
           stroke="rgb(205, 200, 63)"
           stroke-width="3"/>
   <text transform="translate (400, 386) rotate(-60)"
         font-family="Verdana"
         font-weight="bold"
         font-size="12"
         fill="black">
        Exelmans
      </text>
   <line x1="414"
         y1="400"
         x2="480"
         y2="400"
         stroke="rgb(205, 200, 63)"
         stroke-width="7"
         stroke-linecap="round"/>
   <circle cx="480"
           cy="400"
           r="10"
           fill="white"
           stroke="black"
           stroke-width="3"/>
   <line x1="480"
         y1="409"
         x2="480"
         y2="424"
         stroke="black"
         stroke-width="1"/>
   <text transform="translate (480, 386) rotate(-60)"
         font-family="Verdana"
         font-weight="bold"
         font-size="12"
         fill="black">
        Michel-Ange-Molitor
      </text>
   <circle cx="480"
           cy="435"
           r="10"
           fill="rgb(223, 176, 57)"
           stroke="rgb(223, 176, 57)"
           stroke-width="3"/>
   <text x="472"
         y="439.2"
         font-family="serif"
         font-weight="bold"
         font-size="12"
         fill="black">10</text>
   <line x1="494"
         y1="400"
         x2="560"
         y2="400"
         stroke="rgb(205, 200, 63)"
         stroke-width="7"
         stroke-linecap="round"/>
   <circle cx="560"
           cy="400"
           r="10"
           fill="white"
           stroke="black"
           stroke-width="3"/>
   <line x1="560"
         y1="409"
         x2="560"
         y2="424"
         stroke="black"
         stroke-width="1"/>
   <text transform="translate (560, 386) rotate(-60)"
         font-family="Verdana"
         font-weight="bold"
         font-size="12"
         fill="black">
        Michel-Ange-Auteuil
      </text>
   <circle cx="560"
           cy="435"
           r="10"
           fill="rgb(223, 176, 57)"
           stroke="rgb(223, 176, 57)"
           stroke-width="3"/>
   <text x="552"
         y="439.2"
         font-family="serif"
         font-weight="bold"
         font-size="12"
         fill="black">10</text>
   <line x1="574"
         y1="400"
         x2="640"
         y2="400"
         stroke="rgb(205, 200, 63)"
         stroke-width="7"
         stroke-linecap="round"/>
   <circle cx="640"
           cy="400"
           r="10"
           fill="rgb(205, 200, 63)"
           stroke="rgb(205, 200, 63)"
           stroke-width="3"/>
   <text transform="translate (640, 386) rotate(-60)"
         font-family="Verdana"
         font-weight="bold"
         font-size="12"
         fill="black">
        Jasmin
      </text>
   <line x1="654"
         y1="400"
         x2="720"
         y2="400"
         stroke="rgb(205, 200, 63)"
         stroke-width="7"
         stroke-linecap="round"/>
   <circle cx="720"
           cy="400"
           r="10"
           fill="rgb(205, 200, 63)"
           stroke="rgb(205, 200, 63)"
           stroke-width="3"/>
   <text transform="translate (720, 386) rotate(-60)"
         font-family="Verdana"
         font-weight="bold"
         font-size="12"
         fill="black">
        Ranelagh
      </text>
   <line x1="734"
         y1="400"
         x2="800"
         y2="400"
         stroke="rgb(205, 200, 63)"
         stroke-width="7"
         stroke-linecap="round"/>
   <circle cx="800"
           cy="400"
           r="10"
           fill="rgb(205, 200, 63)"
           stroke="rgb(205, 200, 63)"
           stroke-width="3"/>
   <text transform="translate (800, 386) rotate(-60)"
         font-family="Verdana"
         font-weight="bold"
         font-size="12"
         fill="black">
        La Muette
      </text>
   <line x1="814"
         y1="400"
         x2="880"
         y2="400"
         stroke="rgb(205, 200, 63)"
         stroke-width="7"
         stroke-linecap="round"/>
   <circle cx="880"
           cy="400"
           r="10"
           fill="rgb(205, 200, 63)"
           stroke="rgb(205, 200, 63)"
           stroke-width="3"/>
   <text transform="translate (880, 386) rotate(-60)"
         font-family="Verdana"
         font-weight="bold"
         font-size="12"
         fill="black">
        Rue de la Pompe Avenue Georges Mandel
      </text>
   <line x1="894"
         y1="400"
         x2="960"
         y2="400"
         stroke="rgb(205, 200, 63)"
         stroke-width="7"
         stroke-linecap="round"/>
   <circle cx="960"
           cy="400"
           r="10"
           fill="white"
           stroke="black"
           stroke-width="3"/>
   <line x1="960"
         y1="409"
         x2="960"
         y2="424"
         stroke="black"
         stroke-width="1"/>
   <text transform="translate (960, 386) rotate(-60)"
         font-family="Verdana"
         font-weight="bold"
         font-size="12"
         fill="black">
        Trocadéro
      </text>
   <circle cx="960"
           cy="435"
           r="10"
           fill="rgb(121, 187, 164)"
           stroke="rgb(121, 187, 164)"
           stroke-width="3"/>
   <text x="956"
         y="439.2"
         font-family="serif"
         font-weight="bold"
         font-size="12"
         fill="black">6</text>
   <line x1="974"
         y1="400"
         x2="1040"
         y2="400"
         stroke="rgb(205, 200, 63)"
         stroke-width="7"
         stroke-linecap="round"/>
   <circle cx="1040"
           cy="400"
           r="10"
           fill="rgb(205, 200, 63)"
           stroke="rgb(205, 200, 63)"
           stroke-width="3"/>
   <text transform="translate (1040, 386) rotate(-60)"
         font-family="Verdana"
         font-weight="bold"
         font-size="12"
         fill="black">
        Iéna
      </text>
   <line x1="1054"
         y1="400"
         x2="1120"
         y2="400"
         stroke="rgb(205, 200, 63)"
         stroke-width="7"
         stroke-linecap="round"/>
   <circle cx="1120"
           cy="400"
           r="10"
           fill="rgb(205, 200, 63)"
           stroke="rgb(205, 200, 63)"
           stroke-width="3"/>
   <text transform="translate (1120, 386) rotate(-60)"
         font-family="Verdana"
         font-weight="bold"
         font-size="12"
         fill="black">
        Alma-Marceau
      </text>
   <line x1="1134"
         y1="400"
         x2="1200"
         y2="400"
         stroke="rgb(205, 200, 63)"
         stroke-width="7"
         stroke-linecap="round"/>
   <circle cx="1200"
           cy="400"
           r="10"
           fill="white"
           stroke="black"
           stroke-width="3"/>
   <line x1="1200"
         y1="409"
         x2="1200"
         y2="424"
         stroke="black"
         stroke-width="1"/>
   <text transform="translate (1200, 386) rotate(-60)"
         font-family="Verdana"
         font-weight="bold"
         font-size="12"
         fill="black">
        Franklin-Roosevelt
      </text>
   <circle cx="1200"
           cy="435"
           r="10"
           fill="rgb(242, 201, 49)"
           stroke="rgb(242, 201, 49)"
           stroke-width="3"/>
   <text x="1196"
         y="439.2"
         font-family="serif"
         font-weight="bold"
         font-size="12"
         fill="black">1</text>
   <line x1="1214"
         y1="400"
         x2="1280"
         y2="400"
         stroke="rgb(205, 200, 63)"
         stroke-width="7"
         stroke-linecap="round"/>
   <circle cx="1280"
           cy="400"
           r="10"
           fill="rgb(205, 200, 63)"
           stroke="rgb(205, 200, 63)"
           stroke-width="3"/>
   <text transform="translate (1280, 386) rotate(-60)"
         font-family="Verdana"
         font-weight="bold"
         font-size="12"
         fill="black">
        Saint-Philippe du Roule
      </text>
   <line x1="1294"
         y1="400"
         x2="1360"
         y2="400"
         stroke="rgb(205, 200, 63)"
         stroke-width="7"
         stroke-linecap="round"/>
   <circle cx="1360"
           cy="400"
           r="10"
           fill="white"
           stroke="black"
           stroke-width="3"/>
   <line x1="1360"
         y1="409"
         x2="1360"
         y2="424"
         stroke="black"
         stroke-width="1"/>
   <text transform="translate (1360, 386) rotate(-60)"
         font-family="Verdana"
         font-weight="bold"
         font-size="12"
         fill="black">
        Miromesnil
      </text>
   <circle cx="1360"
           cy="435"
           r="10"
           fill="rgb(137, 199, 214)"
           stroke="rgb(137, 199, 214)"
           stroke-width="3"/>
   <text x="1352"
         y="439.2"
         font-family="serif"
         font-weight="bold"
         font-size="12"
         fill="black">13</text>
   <line x1="1374"
         y1="400"
         x2="1440"
         y2="400"
         stroke="rgb(205, 200, 63)"
         stroke-width="7"
         stroke-linecap="round"/>
   <circle cx="1440"
           cy="400"
           r="10"
           fill="rgb(205, 200, 63)"
           stroke="rgb(205, 200, 63)"
           stroke-width="3"/>
   <text transform="translate (1440, 386) rotate(-60)"
         font-family="Verdana"
         font-weight="bold"
         font-size="12"
         fill="black">
        Saint-Augustin
      </text>
   <line x1="1454"
         y1="400"
         x2="1520"
         y2="400"
         stroke="rgb(205, 200, 63)"
         stroke-width="7"
         stroke-linecap="round"/>
   <circle cx="1520"
           cy="400"
           r="10"
           fill="white"
           stroke="black"
           stroke-width="3"/>
   <line x1="1520"
         y1="409"
         x2="1520"
         y2="424"
         stroke="black"
         stroke-width="1"/>
   <text transform="translate (1520, 386) rotate(-60)"
         font-family="Verdana"
         font-weight="bold"
         font-size="12"
         fill="black">
        Havre-Caumartin
      </text>
   <circle cx="1520"
           cy="435"
           r="10"
           fill="rgb(154, 153, 64)"
           stroke="rgb(154, 153, 64)"
           stroke-width="3"/>
   <text x="1516"
         y="439.2"
         font-family="serif"
         font-weight="bold"
         font-size="12"
         fill="black">3</text>
   <line x1="1534"
         y1="400"
         x2="1600"
         y2="400"
         stroke="rgb(205, 200, 63)"
         stroke-width="7"
         stroke-linecap="round"/>
   <circle cx="1600"
           cy="400"
           r="10"
           fill="white"
           stroke="black"
           stroke-width="3"/>
   <line x1="1600"
         y1="409"
         x2="1600"
         y2="424"
         stroke="black"
         stroke-width="1"/>
   <text transform="translate (1600, 386) rotate(-60)"
         font-family="Verdana"
         font-weight="bold"
         font-size="12"
         fill="black">
        Chaussée d'Antin La Fayette
      </text>
   <circle cx="1600"
           cy="435"
           r="10"
           fill="rgb(223, 154, 177)"
           stroke="rgb(223, 154, 177)"
           stroke-width="3"/>
   <text x="1596"
         y="439.2"
         font-family="serif"
         font-weight="bold"
         font-size="12"
         fill="black">7</text>
   <line x1="1614"
         y1="400"
         x2="1680"
         y2="400"
         stroke="rgb(205, 200, 63)"
         stroke-width="7"
         stroke-linecap="round"/>
   <circle cx="1680"
           cy="400"
           r="10"
           fill="white"
           stroke="black"
           stroke-width="3"/>
   <line x1="1680"
         y1="409"
         x2="1680"
         y2="424"
         stroke="black"
         stroke-width="1"/>
   <text transform="translate (1680, 386) rotate(-60)"
         font-family="Verdana"
         font-weight="bold"
         font-size="12"
         fill="black">
        Richelieu-Drouot
      </text>
   <circle cx="1680"
           cy="435"
           r="10"
           fill="rgb(197, 163, 202)"
           stroke="rgb(197, 163, 202)"
           stroke-width="3"/>
   <text x="1676"
         y="439.2"
         font-family="serif"
         font-weight="bold"
         font-size="12"
         fill="black">8</text>
   <line x1="1694"
         y1="400"
         x2="1760"
         y2="400"
         stroke="rgb(205, 200, 63)"
         stroke-width="7"
         stroke-linecap="round"/>
   <circle cx="1760"
           cy="400"
           r="10"
           fill="white"
           stroke="black"
           stroke-width="3"/>
   <line x1="1760"
         y1="409"
         x2="1760"
         y2="424"
         stroke="black"
         stroke-width="1"/>
   <text transform="translate (1760, 386) rotate(-60)"
         font-family="Verdana"
         font-weight="bold"
         font-size="12"
         fill="black">
        Grands Boulevards
      </text>
   <circle cx="1760"
           cy="435"
           r="10"
           fill="rgb(197, 163, 202)"
           stroke="rgb(197, 163, 202)"
           stroke-width="3"/>
   <text x="1756"
         y="439.2"
         font-family="serif"
         font-weight="bold"
         font-size="12"
         fill="black">8</text>
   <line x1="1774"
         y1="400"
         x2="1840"
         y2="400"
         stroke="rgb(205, 200, 63)"
         stroke-width="7"
         stroke-linecap="round"/>
   <circle cx="1840"
           cy="400"
           r="10"
           fill="white"
           stroke="black"
           stroke-width="3"/>
   <line x1="1840"
         y1="409"
         x2="1840"
         y2="424"
         stroke="black"
         stroke-width="1"/>
   <text transform="translate (1840, 386) rotate(-60)"
         font-family="Verdana"
         font-weight="bold"
         font-size="12"
         fill="black">
        Bonne Nouvelle
      </text>
   <circle cx="1840"
           cy="435"
           r="10"
           fill="rgb(197, 163, 202)"
           stroke="rgb(197, 163, 202)"
           stroke-width="3"/>
   <text x="1836"
         y="439.2"
         font-family="serif"
         font-weight="bold"
         font-size="12"
         fill="black">8</text>
   <line x1="1854"
         y1="400"
         x2="1920"
         y2="400"
         stroke="rgb(205, 200, 63)"
         stroke-width="7"
         stroke-linecap="round"/>
   <circle cx="1920"
           cy="400"
           r="10"
           fill="white"
           stroke="black"
           stroke-width="3"/>
   <line x1="1920"
         y1="409"
         x2="1920"
         y2="424"
         stroke="black"
         stroke-width="1"/>
   <text transform="translate (1920, 386) rotate(-60)"
         font-family="Verdana"
         font-weight="bold"
         font-size="12"
         fill="black">
        Strasbourg-Saint-Denis
      </text>
   <circle cx="1920"
           cy="435"
           r="10"
           fill="rgb(188, 77, 152)"
           stroke="rgb(188, 77, 152)"
           stroke-width="3"/>
   <text x="1916"
         y="439.2"
         font-family="serif"
         font-weight="bold"
         font-size="12"
         fill="black">4</text>
   <circle cx="1920"
           cy="456"
           r="10"
           fill="rgb(197, 163, 202)"
           stroke="rgb(197, 163, 202)"
           stroke-width="3"/>
   <text x="1916"
         y="460.2"
         font-family="serif"
         font-weight="bold"
         font-size="12"
         fill="black">8</text>
   <line x1="1934"
         y1="400"
         x2="2000"
         y2="400"
         stroke="rgb(205, 200, 63)"
         stroke-width="7"
         stroke-linecap="round"/>
   <circle cx="2000"
           cy="400"
           r="10"
           fill="white"
           stroke="black"
           stroke-width="3"/>
   <line x1="2000"
         y1="409"
         x2="2000"
         y2="424"
         stroke="black"
         stroke-width="1"/>
   <text transform="translate (2000, 386) rotate(-60)"
         font-family="Verdana"
         font-weight="bold"
         font-size="12"
         fill="black">
        République
      </text>
   <circle cx="2000"
           cy="435"
           r="10"
           fill="rgb(154, 153, 64)"
           stroke="rgb(154, 153, 64)"
           stroke-width="3"/>
   <text x="1996"
         y="439.2"
         font-family="serif"
         font-weight="bold"
         font-size="12"
         fill="black">3</text>
   <circle cx="2000"
           cy="456"
           r="10"
           fill="rgb(222, 139, 83)"
           stroke="rgb(222, 139, 83)"
           stroke-width="3"/>
   <text x="1996"
         y="460.2"
         font-family="serif"
         font-weight="bold"
         font-size="12"
         fill="black">5</text>
   <circle cx="2000"
           cy="477"
           r="10"
           fill="rgb(197, 163, 202)"
           stroke="rgb(197, 163, 202)"
           stroke-width="3"/>
   <text x="1996"
         y="481.2"
         font-family="serif"
         font-weight="bold"
         font-size="12"
         fill="black">8</text>
   <circle cx="2000"
           cy="498"
           r="10"
           fill="rgb(142, 101, 56)"
           stroke="rgb(142, 101, 56)"
           stroke-width="3"/>
   <text x="1992"
         y="502.2"
         font-family="serif"
         font-weight="bold"
         font-size="12"
         fill="black">11</text>
   <line x1="2014"
         y1="400"
         x2="2080"
         y2="400"
         stroke="rgb(205, 200, 63)"
         stroke-width="7"
         stroke-linecap="round"/>
   <circle cx="2080"
           cy="400"
           r="10"
           fill="white"
           stroke="black"
           stroke-width="3"/>
   <line x1="2080"
         y1="409"
         x2="2080"
         y2="424"
         stroke="black"
         stroke-width="1"/>
   <text transform="translate (2080, 386) rotate(-60)"
         font-family="Verdana"
         font-weight="bold"
         font-size="12"
         fill="black">
        Oberkampf
      </text>
   <circle cx="2080"
           cy="435"
           r="10"
           fill="rgb(222, 139, 83)"
           stroke="rgb(222, 139, 83)"
           stroke-width="3"/>
   <text x="2076"
         y="439.2"
         font-family="serif"
         font-weight="bold"
         font-size="12"
         fill="black">5</text>
   <line x1="2094"
         y1="400"
         x2="2160"
         y2="400"
         stroke="rgb(205, 200, 63)"
         stroke-width="7"
         stroke-linecap="round"/>
   <circle cx="2160"
           cy="400"
           r="10"
           fill="rgb(205, 200, 63)"
           stroke="rgb(205, 200, 63)"
           stroke-width="3"/>
   <text transform="translate (2160, 386) rotate(-60)"
         font-family="Verdana"
         font-weight="bold"
         font-size="12"
         fill="black">
        Saint-Ambroise
      </text>
   <line x1="2174"
         y1="400"
         x2="2240"
         y2="400"
         stroke="rgb(205, 200, 63)"
         stroke-width="7"
         stroke-linecap="round"/>
   <circle cx="2240"
           cy="400"
           r="10"
           fill="rgb(205, 200, 63)"
           stroke="rgb(205, 200, 63)"
           stroke-width="3"/>
   <text transform="translate (2240, 386) rotate(-60)"
         font-family="Verdana"
         font-weight="bold"
         font-size="12"
         fill="black">
        Voltaire Léon Blum
      </text>
   <line x1="2254"
         y1="400"
         x2="2320"
         y2="400"
         stroke="rgb(205, 200, 63)"
         stroke-width="7"
         stroke-linecap="round"/>
   <circle cx="2320"
           cy="400"
           r="10"
           fill="rgb(205, 200, 63)"
           stroke="rgb(205, 200, 63)"
           stroke-width="3"/>
   <text transform="translate (2320, 386) rotate(-60)"
         font-family="Verdana"
         font-weight="bold"
         font-size="12"
         fill="black">
        Charonne
      </text>
   <line x1="2334"
         y1="400"
         x2="2400"
         y2="400"
         stroke="rgb(205, 200, 63)"
         stroke-width="7"
         stroke-linecap="round"/>
   <circle cx="2400"
           cy="400"
           r="10"
           fill="rgb(205, 200, 63)"
           stroke="rgb(205, 200, 63)"
           stroke-width="3"/>
   <text transform="translate (2400, 386) rotate(-60)"
         font-family="Verdana"
         font-weight="bold"
         font-size="12"
         fill="black">
        Rue des Boulets
      </text>
   <line x1="2414"
         y1="400"
         x2="2480"
         y2="400"
         stroke="rgb(205, 200, 63)"
         stroke-width="7"
         stroke-linecap="round"/>
   <circle cx="2480"
           cy="400"
           r="10"
           fill="white"
           stroke="black"
           stroke-width="3"/>
   <line x1="2480"
         y1="409"
         x2="2480"
         y2="424"
         stroke="black"
         stroke-width="1"/>
   <text transform="translate (2480, 386) rotate(-60)"
         font-family="Verdana"
         font-weight="bold"
         font-size="12"
         fill="black">
        Nation
      </text>
   <circle cx="2480"
           cy="435"
           r="10"
           fill="rgb(242, 201, 49)"
           stroke="rgb(242, 201, 49)"
           stroke-width="3"/>
   <text x="2476"
         y="439.2"
         font-family="serif"
         font-weight="bold"
         font-size="12"
         fill="black">1</text>
   <circle cx="2480"
           cy="456"
           r="10"
           fill="rgb(33, 110, 180)"
           stroke="rgb(33, 110, 180)"
           stroke-width="3"/>
   <text x="2476"
         y="460.2"
         font-family="serif"
         font-weight="bold"
         font-size="12"
         fill="black">2</text>
   <circle cx="2480"
           cy="477"
           r="10"
           fill="rgb(121, 187, 164)"
           stroke="rgb(121, 187, 164)"
           stroke-width="3"/>
   <text x="2476"
         y="481.2"
         font-family="serif"
         font-weight="bold"
         font-size="12"
         fill="black">6</text>
   <line x1="2494"
         y1="400"
         x2="2560"
         y2="400"
         stroke="rgb(205, 200, 63)"
         stroke-width="7"
         stroke-linecap="round"/>
   <circle cx="2560"
           cy="400"
           r="10"
           fill="rgb(205, 200, 63)"
           stroke="rgb(205, 200, 63)"
           stroke-width="3"/>
   <text transform="translate (2560, 386) rotate(-60)"
         font-family="Verdana"
         font-weight="bold"
         font-size="12"
         fill="black">
        Buzenval
      </text>
   <line x1="2574"
         y1="400"
         x2="2640"
         y2="400"
         stroke="rgb(205, 200, 63)"
         stroke-width="7"
         stroke-linecap="round"/>
   <circle cx="2640"
           cy="400"
           r="10"
           fill="rgb(205, 200, 63)"
           stroke="rgb(205, 200, 63)"
           stroke-width="3"/>
   <text transform="translate (2640, 386) rotate(-60)"
         font-family="Verdana"
         font-weight="bold"
         font-size="12"
         fill="black">
        Maraîchers
      </text>
   <line x1="2654"
         y1="400"
         x2="2720"
         y2="400"
         stroke="rgb(205, 200, 63)"
         stroke-width="7"
         stroke-linecap="round"/>
   <circle cx="2720"
           cy="400"
           r="10"
           fill="rgb(205, 200, 63)"
           stroke="rgb(205, 200, 63)"
           stroke-width="3"/>
   <text transform="translate (2720, 386) rotate(-60)"
         font-family="Verdana"
         font-weight="bold"
         font-size="12"
         fill="black">
        Porte de Montreuil
      </text>
   <line x1="2734"
         y1="400"
         x2="2800"
         y2="400"
         stroke="rgb(205, 200, 63)"
         stroke-width="7"
         stroke-linecap="round"/>
   <circle cx="2800"
           cy="400"
           r="10"
           fill="rgb(205, 200, 63)"
           stroke="rgb(205, 200, 63)"
           stroke-width="3"/>
   <text transform="translate (2800, 386) rotate(-60)"
         font-family="Verdana"
         font-weight="bold"
         font-size="12"
         fill="black">
        Robespierre
      </text>
   <line x1="2814"
         y1="400"
         x2="2880"
         y2="400"
         stroke="rgb(205, 200, 63)"
         stroke-width="7"
         stroke-linecap="round"/>
   <circle cx="2880"
           cy="400"
           r="10"
           fill="rgb(205, 200, 63)"
           stroke="rgb(205, 200, 63)"
           stroke-width="3"/>
   <text transform="translate (2880, 386) rotate(-60)"
         font-family="Verdana"
         font-weight="bold"
         font-size="12"
         fill="black">
        Croix-de-Chavaux Jacques Duclos
      </text>
   <line x1="2894"
         y1="400"
         x2="2960"
         y2="400"
         stroke="rgb(205, 200, 63)"
         stroke-width="7"
         stroke-linecap="round"/>
   <circle cx="2960"
           cy="400"
           r="10"
           fill="rgb(205, 200, 63)"
           stroke="rgb(205, 200, 63)"
           stroke-width="3"/>
   <text transform="translate (2960, 386) rotate(-60)"
         font-family="Verdana"
         font-weight="bold"
         font-size="12"
         fill="black">
        Mairie de Montreuil
      </text>
</svg>
