<?xml version="1.0" encoding="UTF-8"?>
<svg xmlns="http://www.w3.org/2000/svg"
     xmlns:xlink="http://www.w3.org/1999/xlink"
     width="2500"
     height="800">
   <circle cx="50"
           cy="50"
           r="30"
           fill="rgb(154, 153, 64)"
           stroke="rgb(154, 153, 64)"
           stroke-width="5"/>
   <text x="38"
         y="62"
         font-family="serif"
         font-weight="bold"
         font-size="32"
         fill="black">3</text>
   <circle cx="80"
           cy="400"
           r="10"
           fill="rgb(154, 153, 64)"
           stroke="rgb(154, 153, 64)"
           stroke-width="3"/>
   <text transform="translate (80, 386) rotate(-60)"
         font-family="Verdana"
         font-weight="bold"
         font-size="12"
         fill="black">
        Gallieni Parc de Bagnolet
      </text>
   <line x1="94"
         y1="400"
         x2="160"
         y2="400"
         stroke="rgb(154, 153, 64)"
         stroke-width="7"
         stroke-linecap="round"/>
   <circle cx="160"
           cy="400"
           r="10"
           fill="rgb(154, 153, 64)"
           stroke="rgb(154, 153, 64)"
           stroke-width="3"/>
   <text transform="translate (160, 386) rotate(-60)"
         font-family="Verdana"
         font-weight="bold"
         font-size="12"
         fill="black">
        Porte de Bagnolet
      </text>
   <line x1="174"
         y1="400"
         x2="240"
         y2="400"
         stroke="rgb(154, 153, 64)"
         stroke-width="7"
         stroke-linecap="round"/>
   <circle cx="240"
           cy="400"
           r="10"
           fill="white"
           stroke="black"
           stroke-width="3"/>
   <line x1="240"
         y1="409"
         x2="240"
         y2="424"
         stroke="black"
         stroke-width="1"/>
   <text transform="translate (240, 386) rotate(-60)"
         font-family="Verdana"
         font-weight="bold"
         font-size="12"
         fill="black">
        Gambetta
      </text>
   <circle cx="240"
           cy="435"
           r="10"
           fill="rgb(137, 199, 214)"
           stroke="rgb(137, 199, 214)"
           stroke-width="3"/>
   <text x="232"
         y="439.2"
         font-family="serif"
         font-weight="bold"
         font-size="12"
         fill="black">3B</text>
   <line x1="254"
         y1="400"
         x2="320"
         y2="400"
         stroke="rgb(154, 153, 64)"
         stroke-width="7"
         stroke-linecap="round"/>
   <circle cx="320"
           cy="400"
           r="10"
           fill="white"
           stroke="black"
           stroke-width="3"/>
   <line x1="320"
         y1="409"
         x2="320"
         y2="424"
         stroke="black"
         stroke-width="1"/>
   <text transform="translate (320, 386) rotate(-60)"
         font-family="Verdana"
         font-weight="bold"
         font-size="12"
         fill="black">
        Père-Lachaise
      </text>
   <circle cx="320"
           cy="435"
           r="10"
           fill="rgb(33, 110, 180)"
           stroke="rgb(33, 110, 180)"
           stroke-width="3"/>
   <text x="316"
         y="439.2"
         font-family="serif"
         font-weight="bold"
         font-size="12"
         fill="black">2</text>
   <line x1="334"
         y1="400"
         x2="400"
         y2="400"
         stroke="rgb(154, 153, 64)"
         stroke-width="7"
         stroke-linecap="round"/>
   <circle cx="400"
           cy="400"
           r="10"
           fill="rgb(154, 153, 64)"
           stroke="rgb(154, 153, 64)"
           stroke-width="3"/>
   <text transform="translate (400, 386) rotate(-60)"
         font-family="Verdana"
         font-weight="bold"
         font-size="12"
         fill="black">
        Rue Saint-Maur
      </text>
   <line x1="414"
         y1="400"
         x2="480"
         y2="400"
         stroke="rgb(154, 153, 64)"
         stroke-width="7"
         stroke-linecap="round"/>
   <circle cx="480"
           cy="400"
           r="10"
           fill="rgb(154, 153, 64)"
           stroke="rgb(154, 153, 64)"
           stroke-width="3"/>
   <text transform="translate (480, 386) rotate(-60)"
         font-family="Verdana"
         font-weight="bold"
         font-size="12"
         fill="black">
        Parmentier
      </text>
   <line x1="494"
         y1="400"
         x2="560"
         y2="400"
         stroke="rgb(154, 153, 64)"
         stroke-width="7"
         stroke-linecap="round"/>
   <circle cx="560"
           cy="400"
           r="10"
           fill="white"
           stroke="black"
           stroke-width="3"/>
   <line x1="560"
         y1="409"
         x2="560"
         y2="424"
         stroke="black"
         stroke-width="1"/>
   <text transform="translate (560, 386) rotate(-60)"
         font-family="Verdana"
         font-weight="bold"
         font-size="12"
         fill="black">
        République
      </text>
   <circle cx="560"
           cy="435"
           r="10"
           fill="rgb(222, 139, 83)"
           stroke="rgb(222, 139, 83)"
           stroke-width="3"/>
   <text x="556"
         y="439.2"
         font-family="serif"
         font-weight="bold"
         font-size="12"
         fill="black">5</text>
   <circle cx="560"
           cy="456"
           r="10"
           fill="rgb(197, 163, 202)"
           stroke="rgb(197, 163, 202)"
           stroke-width="3"/>
   <text x="556"
         y="460.2"
         font-family="serif"
         font-weight="bold"
         font-size="12"
         fill="black">8</text>
   <circle cx="560"
           cy="477"
           r="10"
           fill="rgb(205, 200, 63)"
           stroke="rgb(205, 200, 63)"
           stroke-width="3"/>
   <text x="556"
         y="481.2"
         font-family="serif"
         font-weight="bold"
         font-size="12"
         fill="black">9</text>
   <circle cx="560"
           cy="498"
           r="10"
           fill="rgb(142, 101, 56)"
           stroke="rgb(142, 101, 56)"
           stroke-width="3"/>
   <text x="552"
         y="502.2"
         font-family="serif"
         font-weight="bold"
         font-size="12"
         fill="black">11</text>
   <line x1="574"
         y1="400"
         x2="640"
         y2="400"
         stroke="rgb(154, 153, 64)"
         stroke-width="7"
         stroke-linecap="round"/>
   <circle cx="640"
           cy="400"
           r="10"
           fill="rgb(154, 153, 64)"
           stroke="rgb(154, 153, 64)"
           stroke-width="3"/>
   <text transform="translate (640, 386) rotate(-60)"
         font-family="Verdana"
         font-weight="bold"
         font-size="12"
         fill="black">
        Temple
      </text>
   <line x1="654"
         y1="400"
         x2="720"
         y2="400"
         stroke="rgb(154, 153, 64)"
         stroke-width="7"
         stroke-linecap="round"/>
   <circle cx="720"
           cy="400"
           r="10"
           fill="white"
           stroke="black"
           stroke-width="3"/>
   <line x1="720"
         y1="409"
         x2="720"
         y2="424"
         stroke="black"
         stroke-width="1"/>
   <text transform="translate (720, 386) rotate(-60)"
         font-family="Verdana"
         font-weight="bold"
         font-size="12"
         fill="black">
        Arts-et-Métiers
      </text>
   <circle cx="720"
           cy="435"
           r="10"
           fill="rgb(142, 101, 56)"
           stroke="rgb(142, 101, 56)"
           stroke-width="3"/>
   <text x="712"
         y="439.2"
         font-family="serif"
         font-weight="bold"
         font-size="12"
         fill="black">11</text>
   <line x1="734"
         y1="400"
         x2="800"
         y2="400"
         stroke="rgb(154, 153, 64)"
         stroke-width="7"
         stroke-linecap="round"/>
   <circle cx="800"
           cy="400"
           r="10"
           fill="white"
           stroke="black"
           stroke-width="3"/>
   <line x1="800"
         y1="409"
         x2="800"
         y2="424"
         stroke="black"
         stroke-width="1"/>
   <text transform="translate (800, 386) rotate(-60)"
         font-family="Verdana"
         font-weight="bold"
         font-size="12"
         fill="black">
        Réaumur-Sébastopol
      </text>
   <circle cx="800"
           cy="435"
           r="10"
           fill="rgb(188, 77, 152)"
           stroke="rgb(188, 77, 152)"
           stroke-width="3"/>
   <text x="796"
         y="439.2"
         font-family="serif"
         font-weight="bold"
         font-size="12"
         fill="black">4</text>
   <line x1="814"
         y1="400"
         x2="880"
         y2="400"
         stroke="rgb(154, 153, 64)"
         stroke-width="7"
         stroke-linecap="round"/>
   <circle cx="880"
           cy="400"
           r="10"
           fill="rgb(154, 153, 64)"
           stroke="rgb(154, 153, 64)"
           stroke-width="3"/>
   <text transform="translate (880, 386) rotate(-60)"
         font-family="Verdana"
         font-weight="bold"
         font-size="12"
         fill="black">
        Sentier
      </text>
   <line x1="894"
         y1="400"
         x2="960"
         y2="400"
         stroke="rgb(154, 153, 64)"
         stroke-width="7"
         stroke-linecap="round"/>
   <circle cx="960"
           cy="400"
           r="10"
           fill="rgb(154, 153, 64)"
           stroke="rgb(154, 153, 64)"
           stroke-width="3"/>
   <text transform="translate (960, 386) rotate(-60)"
         font-family="Verdana"
         font-weight="bold"
         font-size="12"
         fill="black">
        Bourse
      </text>
   <line x1="974"
         y1="400"
         x2="1040"
         y2="400"
         stroke="rgb(154, 153, 64)"
         stroke-width="7"
         stroke-linecap="round"/>
   <circle cx="1040"
           cy="400"
           r="10"
           fill="rgb(154, 153, 64)"
           stroke="rgb(154, 153, 64)"
           stroke-width="3"/>
   <text transform="translate (1040, 386) rotate(-60)"
         font-family="Verdana"
         font-weight="bold"
         font-size="12"
         fill="black">
        Quatre Septembre
      </text>
   <line x1="1054"
         y1="400"
         x2="1120"
         y2="400"
         stroke="rgb(154, 153, 64)"
         stroke-width="7"
         stroke-linecap="round"/>
   <circle cx="1120"
           cy="400"
           r="10"
           fill="white"
           stroke="black"
           stroke-width="3"/>
   <line x1="1120"
         y1="409"
         x2="1120"
         y2="424"
         stroke="black"
         stroke-width="1"/>
   <text transform="translate (1120, 386) rotate(-60)"
         font-family="Verdana"
         font-weight="bold"
         font-size="12"
         fill="black">
        Opéra
      </text>
   <circle cx="1120"
           cy="435"
           r="10"
           fill="rgb(223, 154, 177)"
           stroke="rgb(223, 154, 177)"
           stroke-width="3"/>
   <text x="1116"
         y="439.2"
         font-family="serif"
         font-weight="bold"
         font-size="12"
         fill="black">7</text>
   <circle cx="1120"
           cy="456"
           r="10"
           fill="rgb(197, 163, 202)"
           stroke="rgb(197, 163, 202)"
           stroke-width="3"/>
   <text x="1116"
         y="460.2"
         font-family="serif"
         font-weight="bold"
         font-size="12"
         fill="black">8</text>
   <line x1="1134"
         y1="400"
         x2="1200"
         y2="400"
         stroke="rgb(154, 153, 64)"
         stroke-width="7"
         stroke-linecap="round"/>
   <circle cx="1200"
           cy="400"
           r="10"
           fill="white"
           stroke="black"
           stroke-width="3"/>
   <line x1="1200"
         y1="409"
         x2="1200"
         y2="424"
         stroke="black"
         stroke-width="1"/>
   <text transform="translate (1200, 386) rotate(-60)"
         font-family="Verdana"
         font-weight="bold"
         font-size="12"
         fill="black">
        Havre-Caumartin
      </text>
   <circle cx="1200"
           cy="435"
           r="10"
           fill="rgb(205, 200, 63)"
           stroke="rgb(205, 200, 63)"
           stroke-width="3"/>
   <text x="1196"
         y="439.2"
         font-family="serif"
         font-weight="bold"
         font-size="12"
         fill="black">9</text>
   <line x1="1214"
         y1="400"
         x2="1280"
         y2="400"
         stroke="rgb(154, 153, 64)"
         stroke-width="7"
         stroke-linecap="round"/>
   <circle cx="1280"
           cy="400"
           r="10"
           fill="white"
           stroke="black"
           stroke-width="3"/>
   <line x1="1280"
         y1="409"
         x2="1280"
         y2="424"
         stroke="black"
         stroke-width="1"/>
   <text transform="translate (1280, 386) rotate(-60)"
         font-family="Verdana"
         font-weight="bold"
         font-size="12"
         fill="black">
        Saint-Lazare
      </text>
   <circle cx="1280"
           cy="435"
           r="10"
           fill="rgb(50, 142, 91)"
           stroke="rgb(50, 142, 91)"
           stroke-width="3"/>
   <text x="1272"
         y="439.2"
         font-family="serif"
         font-weight="bold"
         font-size="12"
         fill="black">12</text>
   <circle cx="1280"
           cy="456"
           r="10"
           fill="rgb(137, 199, 214)"
           stroke="rgb(137, 199, 214)"
           stroke-width="3"/>
   <text x="1272"
         y="460.2"
         font-family="serif"
         font-weight="bold"
         font-size="12"
         fill="black">13</text>
   <circle cx="1280"
           cy="477"
           r="10"
           fill="rgb(103, 50, 142)"
           stroke="rgb(103, 50, 142)"
           stroke-width="3"/>
   <text x="1272"
         y="481.2"
         font-family="serif"
         font-weight="bold"
         font-size="12"
         fill="black">14</text>
   <line x1="1294"
         y1="400"
         x2="1360"
         y2="400"
         stroke="rgb(154, 153, 64)"
         stroke-width="7"
         stroke-linecap="round"/>
   <circle cx="1360"
           cy="400"
           r="10"
           fill="rgb(154, 153, 64)"
           stroke="rgb(154, 153, 64)"
           stroke-width="3"/>
   <text transform="translate (1360, 386) rotate(-60)"
         font-family="Verdana"
         font-weight="bold"
         font-size="12"
         fill="black">
        Europe
      </text>
   <line x1="1374"
         y1="400"
         x2="1440"
         y2="400"
         stroke="rgb(154, 153, 64)"
         stroke-width="7"
         stroke-linecap="round"/>
   <circle cx="1440"
           cy="400"
           r="10"
           fill="white"
           stroke="black"
           stroke-width="3"/>
   <line x1="1440"
         y1="409"
         x2="1440"
         y2="424"
         stroke="black"
         stroke-width="1"/>
   <text transform="translate (1440, 386) rotate(-60)"
         font-family="Verdana"
         font-weight="bold"
         font-size="12"
         fill="black">
        Villiers
      </text>
   <circle cx="1440"
           cy="435"
           r="10"
           fill="rgb(33, 110, 180)"
           stroke="rgb(33, 110, 180)"
           stroke-width="3"/>
   <text x="1436"
         y="439.2"
         font-family="serif"
         font-weight="bold"
         font-size="12"
         fill="black">2</text>
   <line x1="1454"
         y1="400"
         x2="1520"
         y2="400"
         stroke="rgb(154, 153, 64)"
         stroke-width="7"
         stroke-linecap="round"/>
   <circle cx="1520"
           cy="400"
           r="10"
           fill="rgb(154, 153, 64)"
           stroke="rgb(154, 153, 64)"
           stroke-width="3"/>
   <text transform="translate (1520, 386) rotate(-60)"
         font-family="Verdana"
         font-weight="bold"
         font-size="12"
         fill="black">
        Malesherbes
      </text>
   <line x1="1534"
         y1="400"
         x2="1600"
         y2="400"
         stroke="rgb(154, 153, 64)"
         stroke-width="7"
         stroke-linecap="round"/>
   <circle cx="1600"
           cy="400"
           r="10"
           fill="rgb(154, 153, 64)"
           stroke="rgb(154, 153, 64)"
           stroke-width="3"/>
   <text transform="translate (1600, 386) rotate(-60)"
         font-family="Verdana"
         font-weight="bold"
         font-size="12"
         fill="black">
        Wagram
      </text>
   <line x1="1614"
         y1="400"
         x2="1680"
         y2="400"
         stroke="rgb(154, 153, 64)"
         stroke-width="7"
         stroke-linecap="round"/>
   <circle cx="1680"
           cy="400"
           r="10"
           fill="rgb(154, 153, 64)"
           stroke="rgb(154, 153, 64)"
           stroke-width="3"/>
   <text transform="translate (1680, 386) rotate(-60)"
         font-family="Verdana"
         font-weight="bold"
         font-size="12"
         fill="black">
        Pereire
      </text>
   <line x1="1694"
         y1="400"
         x2="1760"
         y2="400"
         stroke="rgb(154, 153, 64)"
         stroke-width="7"
         stroke-linecap="round"/>
   <circle cx="1760"
           cy="400"
           r="10"
           fill="rgb(154, 153, 64)"
           stroke="rgb(154, 153, 64)"
           stroke-width="3"/>
   <text transform="translate (1760, 386) rotate(-60)"
         font-family="Verdana"
         font-weight="bold"
         font-size="12"
         fill="black">
        Porte de Champerret
      </text>
   <line x1="1774"
         y1="400"
         x2="1840"
         y2="400"
         stroke="rgb(154, 153, 64)"
         stroke-width="7"
         stroke-linecap="round"/>
   <circle cx="1840"
           cy="400"
           r="10"
           fill="rgb(154, 153, 64)"
           stroke="rgb(154, 153, 64)"
           stroke-width="3"/>
   <text transform="translate (1840, 386) rotate(-60)"
         font-family="Verdana"
         font-weight="bold"
         font-size="12"
         fill="black">
        Louise Michel
      </text>
   <line x1="1854"
         y1="400"
         x2="1920"
         y2="400"
         stroke="rgb(154, 153, 64)"
         stroke-width="7"
         stroke-linecap="round"/>
   <circle cx="1920"
           cy="400"
           r="10"
           fill="rgb(154, 153, 64)"
           stroke="rgb(154, 153, 64)"
           stroke-width="3"/>
   <text transform="translate (1920, 386) rotate(-60)"
         font-family="Verdana"
         font-weight="bold"
         font-size="12"
         fill="black">
        Anatole-France
      </text>
   <line x1="1934"
         y1="400"
         x2="2000"
         y2="400"
         stroke="rgb(154, 153, 64)"
         stroke-width="7"
         stroke-linecap="round"/>
   <circle cx="2000"
           cy="400"
           r="10"
           fill="rgb(154, 153, 64)"
           stroke="rgb(154, 153, 64)"
           stroke-width="3"/>
   <text transform="translate (2000, 386) rotate(-60)"
         font-family="Verdana"
         font-weight="bold"
         font-size="12"
         fill="black">
        Pont de Levallois-Bécon
      </text>
</svg>
